Beta_diversity
…
## [1] "SAD" "N"   "agg"
## 
## $log_scale
## [1] TRUE
## 
## $density_stat
## $density_stat$density_stat
## [1] "mean"
## 
## $density_stat$ind_dens
## [1] 1673.1
## 
## 
## $S_df
## # A tibble: 62 x 10
##    env   group test  sample effort     S effect low_effect med_effect
##    <fct> <chr> <chr> <chr>   <dbl> <dbl>  <dbl>      <dbl>      <dbl>
##  1 MPA   MPA   SAD   indiv       1  1.     1.         1.00       1.00
##  2 MPA   MPA   SAD   indiv       2  1.80   1.80       1.89       1.89
##  3 MPA   MPA   SAD   indiv       4  3.06   3.06       3.41       3.43
##  4 MPA   MPA   SAD   indiv       8  4.89   4.89       5.71       5.76
##  5 MPA   MPA   SAD   indiv      16  7.43   7.43       8.69       8.82
##  6 MPA   MPA   SAD   indiv      32 10.5   10.5       12.0       12.2 
##  7 MPA   MPA   SAD   indiv      64 13.7   13.7       15.2       15.5 
##  8 MPA   MPA   SAD   indiv     128 16.8   16.8       18.2       18.8 
##  9 MPA   MPA   SAD   indiv     256 20.1   20.1       21.4       22.4 
## 10 MPA   MPA   SAD   indiv     512 23.9   23.9       24.9       26.3 
## # ... with 52 more rows, and 1 more variable: high_effect <dbl>
## 
## $mod_df
## # A tibble: 62 x 8
##    test  sample effort index     value low_value med_value high_value
##    <chr> <chr>   <dbl> <chr>     <dbl>     <dbl>     <dbl>      <dbl>
##  1 SAD   indiv       1 b0     1.00e+ 0  1.00e+ 0  1.00e+ 0   1.00e+ 0
##  2 SAD   indiv       1 b1     2.25e-14 -2.58e-14 -1.78e-14  -8.15e-15
##  3 SAD   indiv       2 b0     1.86e+ 0  1.89e+ 0  1.89e+ 0   1.90e+ 0
##  4 SAD   indiv       2 b1    -5.84e- 2 -5.62e- 3  4.27e- 4   5.05e- 3
##  5 SAD   indiv       4 b0     3.27e+ 0  3.41e+ 0  3.42e+ 0   3.44e+ 0
##  6 SAD   indiv       4 b1    -2.19e- 1 -2.62e- 2  1.56e- 3   2.30e- 2
##  7 SAD   indiv       8 b0     5.34e+ 0  5.71e+ 0  5.76e+ 0   5.80e+ 0
##  8 SAD   indiv       8 b1    -4.50e- 1 -7.52e- 2  6.19e- 3   6.84e- 2
##  9 SAD   indiv      16 b0     7.97e+ 0  8.71e+ 0  8.81e+ 0   8.92e+ 0
## 10 SAD   indiv      16 b1    -5.43e- 1 -1.49e- 1  1.40e- 2   1.49e- 1
## # ... with 52 more rows
## 
## attr(,"class")
## [1] "mob_out"
…
